<?xml version="1.0" encoding="UTF-8"?>
<testng-results skipped="0" failed="0" ignored="0" total="10" passed="10">
  <reporter-output>
    <line>
      <![CDATA[Browser is Running in Headless Mode]]>
    </line>
    <line>
      <![CDATA[Browser is Running in Headless Mode]]>
    </line>
    <line>
      <![CDATA[Browser is Running in Headless Mode]]>
    </line>
    <line>
      <![CDATA[Browser is Running in Headless Mode]]>
    </line>
  </reporter-output>
  <suite name="Dealers.Autosite.com Cross Browser Suite" duration-ms="378467" started-at="2019-03-05T07:33:14Z" finished-at="2019-03-05T07:39:33Z">
    <groups>
      <group name="Lead Submission">
        <method signature="LeadRoot.LeadSubmissionRoot()[pri:3, instance:LeadSubmissionFlow.LeadRoot@6b9651f3]" name="LeadSubmissionRoot" class="LeadSubmissionFlow.LeadRoot"/>
        <method signature="LeadRoot.SecondaryLeadRoot()[pri:4, instance:LeadSubmissionFlow.LeadRoot@6b9651f3]" name="SecondaryLeadRoot" class="LeadSubmissionFlow.LeadRoot"/>
        <method signature="LeadRoot.LeadSubmissionRoot()[pri:3, instance:LeadSubmissionFlow.LeadRoot@63440df3]" name="LeadSubmissionRoot" class="LeadSubmissionFlow.LeadRoot"/>
        <method signature="LeadRoot.SecondaryLeadRoot()[pri:4, instance:LeadSubmissionFlow.LeadRoot@63440df3]" name="SecondaryLeadRoot" class="LeadSubmissionFlow.LeadRoot"/>
      </group> <!-- Lead Submission -->
      <group name="Admin Panel">
        <method signature="AdminLogin.Login()[pri:1, instance:AdminPanel.AdminLogin@6b57696f]" name="Login" class="AdminPanel.AdminLogin"/>
        <method signature="CreatePath.CreatePath()[pri:2, instance:AdminPanel.CreatePath@5bb21b69]" name="CreatePath" class="AdminPanel.CreatePath"/>
        <method signature="DeletePath.DeletePath()[pri:5, instance:AdminPanel.DeletePath@38bc8ab5]" name="DeletePath" class="AdminPanel.DeletePath"/>
        <method signature="AdminLogin.Login()[pri:1, instance:AdminPanel.AdminLogin@a38d7a3]" name="Login" class="AdminPanel.AdminLogin"/>
        <method signature="CreatePath.CreatePath()[pri:2, instance:AdminPanel.CreatePath@77f99a05]" name="CreatePath" class="AdminPanel.CreatePath"/>
        <method signature="DeletePath.DeletePath()[pri:5, instance:AdminPanel.DeletePath@3aeaafa6]" name="DeletePath" class="AdminPanel.DeletePath"/>
      </group> <!-- Admin Panel -->
    </groups>
    <test name="DealersAutosite-Chrome" duration-ms="136283" started-at="2019-03-05T07:33:14Z" finished-at="2019-03-05T07:35:31Z">
      <class name="AdminPanel.DeletePath">
        <test-method status="PASS" signature="initDriver(java.lang.String)[pri:0, instance:AdminPanel.DeletePath@38bc8ab5]" name="initDriver" is-config="true" duration-ms="12763" started-at="2019-03-05T07:34:51Z" finished-at="2019-03-05T07:35:04Z">
          <params>
            <param index="0">
              <value>
                <![CDATA[Chrome]]>
              </value>
            </param>
          </params>
          <reporter-output>
            <line>
              <![CDATA[Browser is Running in Headless Mode]]>
            </line>
          </reporter-output>
        </test-method> <!-- initDriver -->
        <test-method status="PASS" signature="initPageObjectClass()[pri:0, instance:AdminPanel.DeletePath@38bc8ab5]" name="initPageObjectClass" is-config="true" duration-ms="1" started-at="2019-03-05T07:35:04Z" finished-at="2019-03-05T07:35:04Z">
          <reporter-output>
          </reporter-output>
        </test-method> <!-- initPageObjectClass -->
        <test-method status="PASS" signature="DeletePath()[pri:5, instance:AdminPanel.DeletePath@38bc8ab5]" name="DeletePath" duration-ms="26227" started-at="2019-03-05T07:35:04Z" description="Verifying Delete Path Functionality" finished-at="2019-03-05T07:35:30Z">
          <reporter-output>
          </reporter-output>
        </test-method> <!-- DeletePath -->
        <test-method status="PASS" signature="closeDriver()[pri:0, instance:AdminPanel.DeletePath@38bc8ab5]" name="closeDriver" is-config="true" duration-ms="614" started-at="2019-03-05T07:35:30Z" finished-at="2019-03-05T07:35:31Z">
          <reporter-output>
          </reporter-output>
        </test-method> <!-- closeDriver -->
      </class> <!-- AdminPanel.DeletePath -->
      <class name="AdminPanel.CreatePath">
        <test-method status="PASS" signature="initDriver(java.lang.String)[pri:0, instance:AdminPanel.CreatePath@5bb21b69]" name="initDriver" is-config="true" duration-ms="4426" started-at="2019-03-05T07:33:32Z" finished-at="2019-03-05T07:33:36Z">
          <params>
            <param index="0">
              <value>
                <![CDATA[Chrome]]>
              </value>
            </param>
          </params>
          <reporter-output>
            <line>
              <![CDATA[Browser is Running in Headless Mode]]>
            </line>
          </reporter-output>
        </test-method> <!-- initDriver -->
        <test-method status="PASS" signature="intiPageObjectClass()[pri:0, instance:AdminPanel.CreatePath@5bb21b69]" name="intiPageObjectClass" is-config="true" duration-ms="1" started-at="2019-03-05T07:33:36Z" finished-at="2019-03-05T07:33:36Z">
          <reporter-output>
          </reporter-output>
        </test-method> <!-- intiPageObjectClass -->
        <test-method status="PASS" signature="CreatePath()[pri:2, instance:AdminPanel.CreatePath@5bb21b69]" name="CreatePath" duration-ms="18216" started-at="2019-03-05T07:33:36Z" description="Verifying Create Path Functionality" finished-at="2019-03-05T07:33:55Z">
          <reporter-output>
          </reporter-output>
        </test-method> <!-- CreatePath -->
        <test-method status="PASS" signature="closeDriver()[pri:0, instance:AdminPanel.CreatePath@5bb21b69]" name="closeDriver" is-config="true" duration-ms="78" started-at="2019-03-05T07:33:55Z" finished-at="2019-03-05T07:33:55Z">
          <reporter-output>
          </reporter-output>
        </test-method> <!-- closeDriver -->
      </class> <!-- AdminPanel.CreatePath -->
      <class name="AdminPanel.AdminLogin">
        <test-method status="PASS" signature="initDriver(java.lang.String)[pri:0, instance:AdminPanel.AdminLogin@6b57696f]" name="initDriver" is-config="true" duration-ms="9622" started-at="2019-03-05T07:33:14Z" finished-at="2019-03-05T07:33:24Z">
          <params>
            <param index="0">
              <value>
                <![CDATA[Chrome]]>
              </value>
            </param>
          </params>
          <reporter-output>
            <line>
              <![CDATA[Browser is Running in Headless Mode]]>
            </line>
          </reporter-output>
        </test-method> <!-- initDriver -->
        <test-method status="PASS" signature="initPageObectClass()[pri:0, instance:AdminPanel.AdminLogin@6b57696f]" name="initPageObectClass" is-config="true" duration-ms="37" started-at="2019-03-05T07:33:24Z" finished-at="2019-03-05T07:33:24Z">
          <reporter-output>
          </reporter-output>
        </test-method> <!-- initPageObectClass -->
        <test-method status="PASS" signature="Login()[pri:1, instance:AdminPanel.AdminLogin@6b57696f]" name="Login" duration-ms="8021" started-at="2019-03-05T07:33:24Z" description="Verifying Login Functionality" finished-at="2019-03-05T07:33:32Z">
          <reporter-output>
          </reporter-output>
        </test-method> <!-- Login -->
        <test-method status="PASS" signature="closeDriver()[pri:0, instance:AdminPanel.AdminLogin@6b57696f]" name="closeDriver" is-config="true" duration-ms="96" started-at="2019-03-05T07:33:32Z" finished-at="2019-03-05T07:33:32Z">
          <reporter-output>
          </reporter-output>
        </test-method> <!-- closeDriver -->
      </class> <!-- AdminPanel.AdminLogin -->
      <class name="LeadSubmissionFlow.LeadRoot">
        <test-method status="PASS" signature="initDriver(java.lang.String)[pri:0, instance:LeadSubmissionFlow.LeadRoot@6b9651f3]" name="initDriver" is-config="true" duration-ms="7784" started-at="2019-03-05T07:33:55Z" finished-at="2019-03-05T07:34:03Z">
          <params>
            <param index="0">
              <value>
                <![CDATA[Chrome]]>
              </value>
            </param>
          </params>
          <reporter-output>
            <line>
              <![CDATA[Browser is Running in Headless Mode]]>
            </line>
          </reporter-output>
        </test-method> <!-- initDriver -->
        <test-method status="PASS" signature="initPageObectClass()[pri:0, instance:LeadSubmissionFlow.LeadRoot@6b9651f3]" name="initPageObectClass" is-config="true" duration-ms="6" started-at="2019-03-05T07:34:03Z" finished-at="2019-03-05T07:34:03Z">
          <reporter-output>
          </reporter-output>
        </test-method> <!-- initPageObectClass -->
        <test-method status="PASS" signature="LeadSubmissionRoot()[pri:3, instance:LeadSubmissionFlow.LeadRoot@6b9651f3]" name="LeadSubmissionRoot" duration-ms="32379" started-at="2019-03-05T07:34:03Z" description="Verifying Lead submission from Root Path Functionality" finished-at="2019-03-05T07:34:35Z">
          <reporter-output>
          </reporter-output>
        </test-method> <!-- LeadSubmissionRoot -->
        <test-method status="PASS" signature="SecondaryLeadRoot()[pri:4, instance:LeadSubmissionFlow.LeadRoot@6b9651f3]" name="SecondaryLeadRoot" duration-ms="15523" started-at="2019-03-05T07:34:35Z" description="Verifying Lead submission from Root Path Functionality" finished-at="2019-03-05T07:34:50Z">
          <reporter-output>
          </reporter-output>
        </test-method> <!-- SecondaryLeadRoot -->
        <test-method status="PASS" signature="closeDriver()[pri:0, instance:LeadSubmissionFlow.LeadRoot@6b9651f3]" name="closeDriver" is-config="true" duration-ms="457" started-at="2019-03-05T07:34:50Z" finished-at="2019-03-05T07:34:51Z">
          <reporter-output>
          </reporter-output>
        </test-method> <!-- closeDriver -->
      </class> <!-- LeadSubmissionFlow.LeadRoot -->
    </test> <!-- DealersAutosite-Chrome -->
    <test name="DealersAutosite-FireFox" duration-ms="241877" started-at="2019-03-05T07:35:31Z" finished-at="2019-03-05T07:39:33Z">
      <class name="AdminPanel.DeletePath">
        <test-method status="PASS" signature="initDriver(java.lang.String)[pri:0, instance:AdminPanel.DeletePath@3aeaafa6]" name="initDriver" is-config="true" duration-ms="23223" started-at="2019-03-05T07:38:45Z" finished-at="2019-03-05T07:39:09Z">
          <params>
            <param index="0">
              <value>
                <![CDATA[Firefox]]>
              </value>
            </param>
          </params>
          <reporter-output>
          </reporter-output>
        </test-method> <!-- initDriver -->
        <test-method status="PASS" signature="initPageObjectClass()[pri:0, instance:AdminPanel.DeletePath@3aeaafa6]" name="initPageObjectClass" is-config="true" duration-ms="1" started-at="2019-03-05T07:39:09Z" finished-at="2019-03-05T07:39:09Z">
          <reporter-output>
          </reporter-output>
        </test-method> <!-- initPageObjectClass -->
        <test-method status="PASS" signature="DeletePath()[pri:5, instance:AdminPanel.DeletePath@3aeaafa6]" name="DeletePath" duration-ms="21136" started-at="2019-03-05T07:39:09Z" description="Verifying Delete Path Functionality" finished-at="2019-03-05T07:39:30Z">
          <reporter-output>
          </reporter-output>
        </test-method> <!-- DeletePath -->
        <test-method status="PASS" signature="closeDriver()[pri:0, instance:AdminPanel.DeletePath@3aeaafa6]" name="closeDriver" is-config="true" duration-ms="2950" started-at="2019-03-05T07:39:30Z" finished-at="2019-03-05T07:39:33Z">
          <reporter-output>
          </reporter-output>
        </test-method> <!-- closeDriver -->
      </class> <!-- AdminPanel.DeletePath -->
      <class name="AdminPanel.CreatePath">
        <test-method status="PASS" signature="initDriver(java.lang.String)[pri:0, instance:AdminPanel.CreatePath@77f99a05]" name="initDriver" is-config="true" duration-ms="44531" started-at="2019-03-05T07:36:38Z" finished-at="2019-03-05T07:37:22Z">
          <params>
            <param index="0">
              <value>
                <![CDATA[Firefox]]>
              </value>
            </param>
          </params>
          <reporter-output>
          </reporter-output>
        </test-method> <!-- initDriver -->
        <test-method status="PASS" signature="intiPageObjectClass()[pri:0, instance:AdminPanel.CreatePath@77f99a05]" name="intiPageObjectClass" is-config="true" duration-ms="2" started-at="2019-03-05T07:37:22Z" finished-at="2019-03-05T07:37:22Z">
          <reporter-output>
          </reporter-output>
        </test-method> <!-- intiPageObjectClass -->
        <test-method status="PASS" signature="CreatePath()[pri:2, instance:AdminPanel.CreatePath@77f99a05]" name="CreatePath" duration-ms="17384" started-at="2019-03-05T07:37:22Z" description="Verifying Create Path Functionality" finished-at="2019-03-05T07:37:40Z">
          <reporter-output>
          </reporter-output>
        </test-method> <!-- CreatePath -->
        <test-method status="PASS" signature="closeDriver()[pri:0, instance:AdminPanel.CreatePath@77f99a05]" name="closeDriver" is-config="true" duration-ms="3875" started-at="2019-03-05T07:37:40Z" finished-at="2019-03-05T07:37:43Z">
          <reporter-output>
          </reporter-output>
        </test-method> <!-- closeDriver -->
      </class> <!-- AdminPanel.CreatePath -->
      <class name="AdminPanel.AdminLogin">
        <test-method status="PASS" signature="initDriver(java.lang.String)[pri:0, instance:AdminPanel.AdminLogin@a38d7a3]" name="initDriver" is-config="true" duration-ms="50545" started-at="2019-03-05T07:35:31Z" finished-at="2019-03-05T07:36:21Z">
          <params>
            <param index="0">
              <value>
                <![CDATA[Firefox]]>
              </value>
            </param>
          </params>
          <reporter-output>
          </reporter-output>
        </test-method> <!-- initDriver -->
        <test-method status="PASS" signature="initPageObectClass()[pri:0, instance:AdminPanel.AdminLogin@a38d7a3]" name="initPageObectClass" is-config="true" duration-ms="2" started-at="2019-03-05T07:36:21Z" finished-at="2019-03-05T07:36:21Z">
          <reporter-output>
          </reporter-output>
        </test-method> <!-- initPageObectClass -->
        <test-method status="PASS" signature="Login()[pri:1, instance:AdminPanel.AdminLogin@a38d7a3]" name="Login" duration-ms="9009" started-at="2019-03-05T07:36:21Z" description="Verifying Login Functionality" finished-at="2019-03-05T07:36:30Z">
          <reporter-output>
          </reporter-output>
        </test-method> <!-- Login -->
        <test-method status="PASS" signature="closeDriver()[pri:0, instance:AdminPanel.AdminLogin@a38d7a3]" name="closeDriver" is-config="true" duration-ms="7290" started-at="2019-03-05T07:36:30Z" finished-at="2019-03-05T07:36:38Z">
          <reporter-output>
          </reporter-output>
        </test-method> <!-- closeDriver -->
      </class> <!-- AdminPanel.AdminLogin -->
      <class name="LeadSubmissionFlow.LeadRoot">
        <test-method status="PASS" signature="initDriver(java.lang.String)[pri:0, instance:LeadSubmissionFlow.LeadRoot@63440df3]" name="initDriver" is-config="true" duration-ms="16090" started-at="2019-03-05T07:37:43Z" finished-at="2019-03-05T07:38:00Z">
          <params>
            <param index="0">
              <value>
                <![CDATA[Firefox]]>
              </value>
            </param>
          </params>
          <reporter-output>
          </reporter-output>
        </test-method> <!-- initDriver -->
        <test-method status="PASS" signature="initPageObectClass()[pri:0, instance:LeadSubmissionFlow.LeadRoot@63440df3]" name="initPageObectClass" is-config="true" duration-ms="2" started-at="2019-03-05T07:38:00Z" finished-at="2019-03-05T07:38:00Z">
          <reporter-output>
          </reporter-output>
        </test-method> <!-- initPageObectClass -->
        <test-method status="PASS" signature="LeadSubmissionRoot()[pri:3, instance:LeadSubmissionFlow.LeadRoot@63440df3]" name="LeadSubmissionRoot" duration-ms="23971" started-at="2019-03-05T07:38:00Z" description="Verifying Lead submission from Root Path Functionality" finished-at="2019-03-05T07:38:24Z">
          <reporter-output>
          </reporter-output>
        </test-method> <!-- LeadSubmissionRoot -->
        <test-method status="PASS" signature="SecondaryLeadRoot()[pri:4, instance:LeadSubmissionFlow.LeadRoot@63440df3]" name="SecondaryLeadRoot" duration-ms="11653" started-at="2019-03-05T07:38:24Z" description="Verifying Lead submission from Root Path Functionality" finished-at="2019-03-05T07:38:35Z">
          <reporter-output>
          </reporter-output>
        </test-method> <!-- SecondaryLeadRoot -->
        <test-method status="PASS" signature="closeDriver()[pri:0, instance:LeadSubmissionFlow.LeadRoot@63440df3]" name="closeDriver" is-config="true" duration-ms="10207" started-at="2019-03-05T07:38:35Z" finished-at="2019-03-05T07:38:45Z">
          <reporter-output>
          </reporter-output>
        </test-method> <!-- closeDriver -->
      </class> <!-- LeadSubmissionFlow.LeadRoot -->
    </test> <!-- DealersAutosite-FireFox -->
  </suite> <!-- Dealers.Autosite.com Cross Browser Suite -->
</testng-results>
